Diamonds Price Estimation
…
diamonds %>%
  filter(!(abs(calculated_depth - depth) <9)) %>%
  select(calculated_depth, depth, x, y, z)

## # A tibble: 24 x 5
##    calculated_depth depth     x     y     z
##               <dbl> <dbl> <dbl> <dbl> <dbl>
##  1             51.2  62.8  6.26  6.19  3.19
##  2             63.1  43    6.32  6.27  3.97
##  3             65.7  44    6.31  6.24  4.12
##  4             51.7  64    7.15  7.04  3.67
##  5             63.0  43    6.53  6.55  4.12
##  6             49.5  59.2  6.88  6.83  3.39
##  7             16.1  60.6  6.62  6.67  1.07
##  8             65.0  55.9  6.77  6.71  4.38
##  9             56.9  67.3  7.85  5.75  3.87
## 10             20.5  61.9  7.43  7.5   1.53
## # ... with 14 more rows
…
